{
	"info": {
		"_postman_id": "683f75e2-9006-4b60-83f6-f679d6f16fde",
		"name": "messaging-backend-app",
		"schema": "https://schema.getpostman.com/json/collection/v2.1.0/collection.json",
		"_exporter_id": "28876990"
	},
	"item": [
		{
			"name": "Register User",
			"request": {
				"method": "POST",
				"header": [],
				"body": {
					"mode": "raw",
					"raw": "{\n    \"username\":\"abc123\",\n    \"email\":\"abc123@gmail.com\",\n    \"password\":\"Qazwsx12@!\"\n}",
					"options": {
						"raw": {
							"language": "json"
						}
					}
				},
				"url": {
					"raw": "http://localhost:8000/api/auth/register",
					"protocol": "http",
					"host": [
						"localhost"
					],
					"port": "8000",
					"path": [
						"api",
						"auth",
						"register"
					]
				}
			},
			"response": []
		},
		{
			"name": "Login User",
			"request": {
				"method": "POST",
				"header": [],
				"body": {
					"mode": "raw",
					"raw": "{\n    \"email\":\"abc@gmail.com\",\n    \"password\":\"Qwerty21@!\"\n}",
					"options": {
						"raw": {
							"language": "json"
						}
					}
				},
				"url": {
					"raw": "http://localhost:8000/api/auth/login",
					"protocol": "http",
					"host": [
						"localhost"
					],
					"port": "8000",
					"path": [
						"api",
						"auth",
						"login"
					]
				}
			},
			"response": []
		},
		{
			"name": "Get User Profile",
			"protocolProfileBehavior": {
				"disableBodyPruning": true
			},
			"request": {
				"auth": {
					"type": "bearer",
					"bearer": [
						{
							"key": "token",
							"value": "eyJhbGciOiJIUzI1NiIsInR5cCI6IkpXVCJ9.eyJ1c2VySWQiOiI2NjJiZmQ5YzRkYWVlMjJkOWQ4MzA0ZGIiLCJpYXQiOjE3MTQyMjMwNzMsImV4cCI6MTcxNDIyNjY3M30.qzjGQuOV3Vk6mlobNgFttGtAGey4xS5ae6Q06UAD_d8",
							"type": "string"
						}
					]
				},
				"method": "GET",
				"header": [],
				"body": {
					"mode": "raw",
					"raw": "{\n    \"username\":\"g507\"\n}",
					"options": {
						"raw": {
							"language": "json"
						}
					}
				},
				"url": {
					"raw": "http://localhost:8000/api/user/profile",
					"protocol": "http",
					"host": [
						"localhost"
					],
					"port": "8000",
					"path": [
						"api",
						"user",
						"profile"
					]
				}
			},
			"response": []
		},
		{
			"name": "Update user profile",
			"request": {
				"auth": {
					"type": "bearer",
					"bearer": [
						{
							"key": "token",
							"value": "eyJhbGciOiJIUzI1NiIsInR5cCI6IkpXVCJ9.eyJ1c2VySWQiOiI2NjJiZmQ5YzRkYWVlMjJkOWQ4MzA0ZGIiLCJpYXQiOjE3MTQyMjMwNzMsImV4cCI6MTcxNDIyNjY3M30.qzjGQuOV3Vk6mlobNgFttGtAGey4xS5ae6Q06UAD_d8",
							"type": "string"
						}
					]
				},
				"method": "PUT",
				"header": [],
				"body": {
					"mode": "raw",
					"raw": "{\n    \"username\":\"g507\"\n}",
					"options": {
						"raw": {
							"language": "json"
						}
					}
				},
				"url": {
					"raw": "http://localhost:8000/api/user/profile",
					"protocol": "http",
					"host": [
						"localhost"
					],
					"port": "8000",
					"path": [
						"api",
						"user",
						"profile"
					]
				}
			},
			"response": []
		},
		{
			"name": "Send Message to User",
			"request": {
				"auth": {
					"type": "bearer",
					"bearer": [
						{
							"key": "token",
							"value": "eyJhbGciOiJIUzI1NiIsInR5cCI6IkpXVCJ9.eyJ1c2VySWQiOiI2NjJiZmQ5YzRkYWVlMjJkOWQ4MzA0ZGIiLCJpYXQiOjE3MTQyMjMwNzMsImV4cCI6MTcxNDIyNjY3M30.qzjGQuOV3Vk6mlobNgFttGtAGey4xS5ae6Q06UAD_d8",
							"type": "string"
						}
					]
				},
				"method": "POST",
				"header": [],
				"body": {
					"mode": "raw",
					"raw": "{\n  \"receiver\": \"662bfd9c4daee22d9d8304db\",\n  \"content\": \"Hello\",\n  \"messageType\": \"text\"\n}",
					"options": {
						"raw": {
							"language": "json"
						}
					}
				},
				"url": {
					"raw": "http://localhost:8000/api/messages/send",
					"protocol": "http",
					"host": [
						"localhost"
					],
					"port": "8000",
					"path": [
						"api",
						"messages",
						"send"
					]
				}
			},
			"response": []
		},
		{
			"name": "Get all messages of user",
			"request": {
				"auth": {
					"type": "bearer",
					"bearer": [
						{
							"key": "token",
							"value": "eyJhbGciOiJIUzI1NiIsInR5cCI6IkpXVCJ9.eyJ1c2VySWQiOiI2NjJiZmQ5YzRkYWVlMjJkOWQ4MzA0ZGIiLCJpYXQiOjE3MTQyMjMwNzMsImV4cCI6MTcxNDIyNjY3M30.qzjGQuOV3Vk6mlobNgFttGtAGey4xS5ae6Q06UAD_d8",
							"type": "string"
						}
					]
				},
				"method": "GET",
				"header": [],
				"url": {
					"raw": "http://localhost:8000/api/messages/receive?page=1",
					"protocol": "http",
					"host": [
						"localhost"
					],
					"port": "8000",
					"path": [
						"api",
						"messages",
						"receive"
					],
					"query": [
						{
							"key": "page",
							"value": "1"
						}
					]
				}
			},
			"response": []
		},
		{
			"name": "Create Chat Group",
			"request": {
				"auth": {
					"type": "bearer",
					"bearer": [
						{
							"key": "token",
							"value": "eyJhbGciOiJIUzI1NiIsInR5cCI6IkpXVCJ9.eyJ1c2VySWQiOiI2NjJiZmQ5YzRkYWVlMjJkOWQ4MzA0ZGIiLCJpYXQiOjE3MTQyMjMwNzMsImV4cCI6MTcxNDIyNjY3M30.qzjGQuOV3Vk6mlobNgFttGtAGey4xS5ae6Q06UAD_d8",
							"type": "string"
						}
					]
				},
				"method": "POST",
				"header": [],
				"body": {
					"mode": "raw",
					"raw": "{\n    \"name\":\"Test Group\",\n    \"participants\":[\"662bfd9c4daee22d9d8304db\"]\n}",
					"options": {
						"raw": {
							"language": "json"
						}
					}
				},
				"url": {
					"raw": "http://localhost:8000/api/group/chat/create",
					"protocol": "http",
					"host": [
						"localhost"
					],
					"port": "8000",
					"path": [
						"api",
						"group",
						"chat",
						"create"
					]
				}
			},
			"response": []
		},
		{
			"name": "Join a group chat",
			"request": {
				"auth": {
					"type": "bearer",
					"bearer": [
						{
							"key": "token",
							"value": "eyJhbGciOiJIUzI1NiIsInR5cCI6IkpXVCJ9.eyJ1c2VySWQiOiI2NjJiZmQ5YzRkYWVlMjJkOWQ4MzA0ZGIiLCJpYXQiOjE3MTQyMjMwNzMsImV4cCI6MTcxNDIyNjY3M30.qzjGQuOV3Vk6mlobNgFttGtAGey4xS5ae6Q06UAD_d8",
							"type": "string"
						}
					]
				},
				"method": "POST",
				"header": [],
				"body": {
					"mode": "raw",
					"raw": "{\n    \"groupId\":\"662d012644b18491ce7a1774\"\n}",
					"options": {
						"raw": {
							"language": "json"
						}
					}
				},
				"url": {
					"raw": "http://localhost:8000/api/group/chat/join",
					"protocol": "http",
					"host": [
						"localhost"
					],
					"port": "8000",
					"path": [
						"api",
						"group",
						"chat",
						"join"
					]
				}
			},
			"response": []
		},
		{
			"name": "Leave a group chat",
			"request": {
				"auth": {
					"type": "bearer",
					"bearer": [
						{
							"key": "token",
							"value": "eyJhbGciOiJIUzI1NiIsInR5cCI6IkpXVCJ9.eyJ1c2VySWQiOiI2NjJiZmQ5YzRkYWVlMjJkOWQ4MzA0ZGIiLCJpYXQiOjE3MTQyMjMwNzMsImV4cCI6MTcxNDIyNjY3M30.qzjGQuOV3Vk6mlobNgFttGtAGey4xS5ae6Q06UAD_d8",
							"type": "string"
						}
					]
				},
				"method": "DELETE",
				"header": [],
				"body": {
					"mode": "raw",
					"raw": "{\n    \"groupId\":\"662d012644b18491ce7a1774\"\n}",
					"options": {
						"raw": {
							"language": "json"
						}
					}
				},
				"url": {
					"raw": "http://localhost:8000/api/group/chat/leave",
					"protocol": "http",
					"host": [
						"localhost"
					],
					"port": "8000",
					"path": [
						"api",
						"group",
						"chat",
						"leave"
					]
				}
			},
			"response": []
		},
		{
			"name": "Send message to group chat",
			"request": {
				"auth": {
					"type": "bearer",
					"bearer": [
						{
							"key": "token",
							"value": "eyJhbGciOiJIUzI1NiIsInR5cCI6IkpXVCJ9.eyJ1c2VySWQiOiI2NjJiZmQ5YzRkYWVlMjJkOWQ4MzA0ZGIiLCJpYXQiOjE3MTQyMjMwNzMsImV4cCI6MTcxNDIyNjY3M30.qzjGQuOV3Vk6mlobNgFttGtAGey4xS5ae6Q06UAD_d8",
							"type": "string"
						}
					]
				},
				"method": "POST",
				"header": [],
				"body": {
					"mode": "raw",
					"raw": "{\n    \"groupId\":\"662d012644b18491ce7a1774\",\n    \"content\":\"Hi everyone, welcome to the group!\",\n    \"messageType\":\"text\"\n}",
					"options": {
						"raw": {
							"language": "json"
						}
					}
				},
				"url": {
					"raw": "http://localhost:8000/api/group/message/send",
					"protocol": "http",
					"host": [
						"localhost"
					],
					"port": "8000",
					"path": [
						"api",
						"group",
						"message",
						"send"
					]
				}
			},
			"response": []
		},
		{
			"name": "Get all messages of group chat",
			"protocolProfileBehavior": {
				"disableBodyPruning": true
			},
			"request": {
				"auth": {
					"type": "bearer",
					"bearer": [
						{
							"key": "token",
							"value": "eyJhbGciOiJIUzI1NiIsInR5cCI6IkpXVCJ9.eyJ1c2VySWQiOiI2NjJiZmQ5YzRkYWVlMjJkOWQ4MzA0ZGIiLCJpYXQiOjE3MTQyMjMwNzMsImV4cCI6MTcxNDIyNjY3M30.qzjGQuOV3Vk6mlobNgFttGtAGey4xS5ae6Q06UAD_d8",
							"type": "string"
						}
					]
				},
				"method": "GET",
				"header": [],
				"body": {
					"mode": "raw",
					"raw": "{\n    \"groupId\":\"662d012644b18491ce7a1774\"\n}",
					"options": {
						"raw": {
							"language": "json"
						}
					}
				},
				"url": {
					"raw": "http://localhost:8000/api/group/message/receive",
					"protocol": "http",
					"host": [
						"localhost"
					],
					"port": "8000",
					"path": [
						"api",
						"group",
						"message",
						"receive"
					]
				}
			},
			"response": []
		}
	],
	"auth": {
		"type": "bearer"
	},
	"event": [
		{
			"listen": "prerequest",
			"script": {
				"type": "text/javascript",
				"exec": [
					""
				]
			}
		},
		{
			"listen": "test",
			"script": {
				"type": "text/javascript",
				"exec": [
					""
				]
			}
		}
	]
}